6
Lattice="20.0 00.0 0.0 0.0 20.0 0.0 0.0 0.0 20.0" Properties=species:S:1:pos:R:3 pbc="T T T"
O        7.04366735       7.87936164       8.00000000
H        6.69246483       8.76970327       8.00000000
H        8.00000000       8.00000000       8.00000000
O        9.75642660       8.00000000       8.00000000
H       10.06839093       7.50315271       7.24143900
H       10.06839093       7.50315271       8.75856100
